…
##What is mean total number of steps taken per day?
  
1- Calculate the total number of steps taken per day
  

```r
dat %>% 
        group_by(date) %>%
        summarise(totSteps = sum(steps))
```

```
## # A tibble: 61 × 2
##          date totSteps
##        <date>    <dbl>
## 1  2012-10-01       NA
## 2  2012-10-02      126
## 3  2012-10-03    11352
## 4  2012-10-04    12116
## 5  2012-10-05    13294
## 6  2012-10-06    15420
## 7  2012-10-07    11015
## 8  2012-10-08       NA
## 9  2012-10-09    12811
## 10 2012-10-10     9900
## # ... with 51 more rows
```
…
  
3- calculate mean and median
  

```r
dat %>% 
        group_by(date) %>%
        summarise(meanSteps = mean(steps), medianSteps = median(steps)) 
```

```
## # A tibble: 61 × 3
##          date meanSteps medianSteps
##        <date>     <dbl>       <dbl>
## 1  2012-10-01        NA          NA
## 2  2012-10-02   0.43750           0
## 3  2012-10-03  39.41667           0
## 4  2012-10-04  42.06944           0
## 5  2012-10-05  46.15972           0
## 6  2012-10-06  53.54167           0
## 7  2012-10-07  38.24653           0
## 8  2012-10-08        NA          NA
## 9  2012-10-09  44.48264           0
## 10 2012-10-10  34.37500           0
## # ... with 51 more rows
```
…
Calculate the total, mean and median of the adjusted data
 

```r
datNew %>% 
        group_by(date) %>%
        summarise(totSteps = sum(newSteps), meanSteps = mean(newSteps), medianSteps = median(newSteps) ) 
```

```
## # A tibble: 61 × 4
##          date totSteps meanSteps medianSteps
##        <date>    <dbl>     <dbl>       <dbl>
## 1  2012-10-01 10766.19  37.38260    34.11321
## 2  2012-10-02   126.00   0.43750     0.00000
## 3  2012-10-03 11352.00  39.41667     0.00000
## 4  2012-10-04 12116.00  42.06944     0.00000
## 5  2012-10-05 13294.00  46.15972     0.00000
## 6  2012-10-06 15420.00  53.54167     0.00000
## 7  2012-10-07 11015.00  38.24653     0.00000
## 8  2012-10-08 10766.19  37.38260    34.11321
## 9  2012-10-09 12811.00  44.48264     0.00000
## 10 2012-10-10  9900.00  34.37500     0.00000
## # ... with 51 more rows
```
…
